{"logLevel":"debug","message":"multithreading is set to false"}
{"logLevel":"debug","message":"Using reflection to scan dependencies for gauge implementations..."}
log4j:WARN No appenders could be found for logger (io.grpc.netty.shaded.io.netty.util.internal.logging.InternalLoggerFactory).
log4j:WARN Please initialize the log4j system properly.
log4j:WARN See http://logging.apache.org/log4j/1.2/faq.html#noconfig for more info.
{"logLevel":"debug","message":"gauge-java took 3027milliseconds to load and scan. This should be less than 'runner_connection_timeout' config value."}
{"logLevel":"debug","message":"run 'gauge config runner_connection_timeout' and verify that it is < 3027"}
{"logLevel":"debug","message":"starting gRPC server..."}
{"logLevel":"debug","message":"started gRPC server on port 56100"}
{"logLevel":"info","message":"Listening on port:56100"}
{"logLevel":"debug","message":"Scanning packages for steps"}
{"logLevel":"debug","message":"Comparing 'com.modanisa.acceptancetest.StepImplementation.waitWithSecond' and 'com.modanisa.acceptancetest.StepImplementation.waitWithSecond'"}
{"logLevel":"debug","message":"Found {} saniye kadar bekle in current project scope."}
{"logLevel":"debug","message":"Comparing 'com.modanisa.acceptancetest.StepImplementation.checkInput' and 'com.modanisa.acceptancetest.StepImplementation.checkInput'"}
{"logLevel":"debug","message":"Found Css'li {} elementi bul ve {} değerine eşitliğini kontrol et in current project scope."}
{"logLevel":"debug","message":"Comparing 'com.modanisa.acceptancetest.StepImplementation.clickElementByCss' and 'com.modanisa.acceptancetest.StepImplementation.clickElementByCss'"}
{"logLevel":"debug","message":"Found Css'li {} elemente tıkla. in current project scope."}
{"logLevel":"debug","message":"Comparing 'com.modanisa.acceptancetest.StepImplementation.sendKeyByCss' and 'com.modanisa.acceptancetest.StepImplementation.sendKeyByCss'"}
{"logLevel":"debug","message":"Found Css'li {} elementi bul ve {} değerini yaz. in current project scope."}
{"logLevel":"debug","message":"Scanning packages for hooks"}
{"logLevel":"debug","message":"Scanned steps (using static parsing + reflections): "}
{"logLevel":"debug","message":"\tCss'li {} elemente tıkla. : public void clickElementByCss(String element)"}
{"logLevel":"debug","message":"\tCss'li {} elementi bul ve {} değerine eşitliğini kontrol et : public void checkInput(String element, String key)"}
{"logLevel":"debug","message":"\t{} saniye kadar bekle : public void waitWithSecond(ınt key) throws InterruptedException"}
{"logLevel":"debug","message":"\tCss'li {} elementi bul ve {} değerini yaz. : public void sendKeyByCss(String element, String key)"}
Nis 26, 2021 1:33:51 ÖÖ org.openqa.selenium.remote.DesiredCapabilities chrome
INFO: Using `new ChromeOptions()` is preferred to `DesiredCapabilities.chrome()`
Starting ChromeDriver 90.0.4430.24 (4c6d850f087da467d926e8eddb76550aed655991-refs/branch-heads/4430@{#429}) on port 39684
Only local connections are allowed.
Please see https://chromedriver.chromium.org/security-considerations for suggestions on keeping ChromeDriver safe.
ChromeDriver was started successfully.
Nis 26, 2021 1:33:53 ÖÖ org.openqa.selenium.remote.ProtocolHandshake createSession
INFO: Detected dialect: W3C
{"logLevel":"debug","message":"Executing '{} saniye kadar bekle' using 'class com.modanisa.acceptancetest.StepImplementation.waitWithSecond"}
{"logLevel":"debug","message":"Executing 'Css'li {} elementi bul ve {} değerini yaz.' using 'class com.modanisa.acceptancetest.StepImplementation.sendKeyByCss"}
{"logLevel":"debug","message":"Executing '{} saniye kadar bekle' using 'class com.modanisa.acceptancetest.StepImplementation.waitWithSecond"}
{"logLevel":"debug","message":"Executing 'Css'li {} elemente tıkla.' using 'class com.modanisa.acceptancetest.StepImplementation.clickElementByCss"}
{"logLevel":"debug","message":"Executing '{} saniye kadar bekle' using 'class com.modanisa.acceptancetest.StepImplementation.waitWithSecond"}
{"logLevel":"debug","message":"Executing 'Css'li {} elementi bul ve {} değerine eşitliğini kontrol et' using 'class com.modanisa.acceptancetest.StepImplementation.checkInput"}
{"logLevel":"debug","message":"Executing '{} saniye kadar bekle' using 'class com.modanisa.acceptancetest.StepImplementation.waitWithSecond"}
{"logLevel":"debug","message":"Executing '{} saniye kadar bekle' using 'class com.modanisa.acceptancetest.StepImplementation.waitWithSecond"}
{"logLevel":"debug","message":"Executing 'Css'li {} elementi bul ve {} değerini yaz.' using 'class com.modanisa.acceptancetest.StepImplementation.sendKeyByCss"}
{"logLevel":"debug","message":"Executing '{} saniye kadar bekle' using 'class com.modanisa.acceptancetest.StepImplementation.waitWithSecond"}
{"logLevel":"debug","message":"Executing 'Css'li {} elemente tıkla.' using 'class com.modanisa.acceptancetest.StepImplementation.clickElementByCss"}
{"logLevel":"debug","message":"Executing '{} saniye kadar bekle' using 'class com.modanisa.acceptancetest.StepImplementation.waitWithSecond"}
{"logLevel":"debug","message":"Executing 'Css'li {} elementi bul ve {} değerine eşitliğini kontrol et' using 'class com.modanisa.acceptancetest.StepImplementation.checkInput"}
{"logLevel":"debug","message":"Killing Java runner..."}
{"logLevel":"debug","message":"Stopping execution pool..."}
{"logLevel":"debug","message":"Shutting down grpc server..."}
{"logLevel":"debug","message":"Runner killed gracefully."}
